\relax 
\providecommand*\new@tpo@label[2]{}
\select@language{english}
\@writefile{toc}{\select@language{english}}
\@writefile{lof}{\select@language{english}}
\@writefile{lot}{\select@language{english}}
\@writefile{lof}{\contentsline {figure}{\numberline {0.1}{\ignorespaces time of generalized linear regresssion with monomial features of different maximum degree, we can see that the computation time goes up as the degree increases. However, with 4 data points, it's hard to say whether is in O($d^6$)}}{2}}
\@writefile{lof}{\contentsline {figure}{\numberline {0.2}{\ignorespaces time of Gaussian process regresssion with gaussian kernel under different variance, since the size of the matrix to be inverted is the same, with the only difference what to multiply to the identity matrix, the computation time is roughly the same with some fluctuations possibly from system load}}{4}}
\@writefile{lof}{\contentsline {figure}{\numberline {0.3}{\ignorespaces time of Gaussian process regresssion with polynomial kernel of different degree, although the size of the matrix to be inverted is the same, the computation of the kernel involves taking to the power of $d$, so it's normal that the computation time goes up as the degree increases}}{4}}
